%YAML 1.1
%TAG !u! tag:unity3d.com,2011:
--- !u!114 &11400000
MonoBehaviour:
  m_ObjectHideFlags: 0
  m_CorrespondingSourceObject: {fileID: 0}
  m_PrefabInstance: {fileID: 0}
  m_PrefabAsset: {fileID: 0}
  m_GameObject: {fileID: 0}
  m_Enabled: 1
  m_EditorHideFlags: 0
  m_GeneratorAsset: {fileID: 0}
  m_Script: {fileID: 11500000, guid: 2d5751a2c961df945a34295ccf5e576d, type: 3}
  m_Name: LayerChangeArea
  m_EditorClassIdentifier: 
  m_Prefabs:
  - {fileID: 3859030179600413950, guid: 11e5ac70e6e96524389f6e9d635b4881, type: 3}
  m_PerlinScale: 0.5
  m_Z: 0
