%YAML 1.1
%TAG !u! tag:unity3d.com,2011:
--- !u!74 &7400000
AnimationClip:
  m_ObjectHideFlags: 0
  m_CorrespondingSourceObject: {fileID: 0}
  m_PrefabInstance: {fileID: 0}
  m_PrefabAsset: {fileID: 0}
  m_Name: Drone_Idle
  serializedVersion: 6
  m_Legacy: 0
  m_Compressed: 0
  m_UseHighQualityCurve: 1
  m_RotationCurves: []
  m_CompressedRotationCurves: []
  m_EulerCurves: []
  m_PositionCurves: []
  m_ScaleCurves: []
  m_FloatCurves: []
  m_PPtrCurves:
  - curve:
    - time: 0
      value: {fileID: 21300000, guid: 9938309f0889aba40a8438997850af6d, type: 3}
    - time: 0.11666667
      value: {fileID: 21300000, guid: 52d5b8619b43b42438f968ce986c6c05, type: 3}
    - time: 0.25
      value: {fileID: 21300000, guid: b8a20d284d679424bbf5730f412f3f8f, type: 3}
    - time: 0.36666667
      value: {fileID: 21300000, guid: 1e9810b468cb9e14fb598ad5cf2c1257, type: 3}
    - time: 0.46666667
      value: {fileID: 21300000, guid: d3dd5d8dfc4239444a2848a2498c0e68, type: 3}
    - time: 0.5833333
      value: {fileID: 21300000, guid: cda986c62a6c7f446b81a6334f022de1, type: 3}
    - time: 0.71666664
      value: {fileID: 21300000, guid: ac8ce63010362314aa90ee0f7ed39480, type: 3}
    - time: 0.81666666
      value: {fileID: 21300000, guid: ac8ce63010362314aa90ee0f7ed39480, type: 3}
    attribute: m_Sprite
    path: Flip/Visuals
    classID: 212
    script: {fileID: 0}
  m_SampleRate: 60
  m_WrapMode: 0
  m_Bounds:
    m_Center: {x: 0, y: 0, z: 0}
    m_Extent: {x: 0, y: 0, z: 0}
  m_ClipBindingConstant:
    genericBindings:
    - serializedVersion: 2
      path: 3346964865
      attribute: 0
      script: {fileID: 0}
      typeID: 212
      customType: 23
      isPPtrCurve: 1
    pptrCurveMapping:
    - {fileID: 21300000, guid: 9938309f0889aba40a8438997850af6d, type: 3}
    - {fileID: 21300000, guid: 52d5b8619b43b42438f968ce986c6c05, type: 3}
    - {fileID: 21300000, guid: b8a20d284d679424bbf5730f412f3f8f, type: 3}
    - {fileID: 21300000, guid: 1e9810b468cb9e14fb598ad5cf2c1257, type: 3}
    - {fileID: 21300000, guid: d3dd5d8dfc4239444a2848a2498c0e68, type: 3}
    - {fileID: 21300000, guid: cda986c62a6c7f446b81a6334f022de1, type: 3}
    - {fileID: 21300000, guid: ac8ce63010362314aa90ee0f7ed39480, type: 3}
    - {fileID: 21300000, guid: ac8ce63010362314aa90ee0f7ed39480, type: 3}
  m_AnimationClipSettings:
    serializedVersion: 2
    m_AdditiveReferencePoseClip: {fileID: 0}
    m_AdditiveReferencePoseTime: 0
    m_StartTime: 0
    m_StopTime: 0.8333333
    m_OrientationOffsetY: 0
    m_Level: 0
    m_CycleOffset: 0
    m_HasAdditiveReferencePose: 0
    m_LoopTime: 1
    m_LoopBlend: 0
    m_LoopBlendOrientation: 0
    m_LoopBlendPositionY: 0
    m_LoopBlendPositionXZ: 0
    m_KeepOriginalOrientation: 0
    m_KeepOriginalPositionY: 1
    m_KeepOriginalPositionXZ: 0
    m_HeightFromFeet: 0
    m_Mirror: 0
  m_EditorCurves: []
  m_EulerEditorCurves: []
  m_HasGenericRootTransform: 0
  m_HasMotionFloatCurves: 0
  m_Events: []
