%YAML 1.1
%TAG !u! tag:unity3d.com,2011:
--- !u!74 &7400000
AnimationClip:
  m_ObjectHideFlags: 0
  m_CorrespondingSourceObject: {fileID: 0}
  m_PrefabInstance: {fileID: 0}
  m_PrefabAsset: {fileID: 0}
  m_Name: Player_Attack
  serializedVersion: 6
  m_Legacy: 0
  m_Compressed: 0
  m_UseHighQualityCurve: 1
  m_RotationCurves: []
  m_CompressedRotationCurves: []
  m_EulerCurves: []
  m_PositionCurves: []
  m_ScaleCurves: []
  m_FloatCurves:
  - curve:
      serializedVersion: 2
      m_Curve:
      - serializedVersion: 3
        time: 0
        value: 1
        inSlope: 0
        outSlope: 0
        tangentMode: 103
        weightedMode: 0
        inWeight: 0
        outWeight: 0
      - serializedVersion: 3
        time: 0.06666667
        value: 1
        inSlope: 0
        outSlope: 0
        tangentMode: 103
        weightedMode: 0
        inWeight: 0
        outWeight: 0
      - serializedVersion: 3
        time: 0.2
        value: 0
        inSlope: 0
        outSlope: 0
        tangentMode: 103
        weightedMode: 0
        inWeight: 0
        outWeight: 0
      m_PreInfinity: 2
      m_PostInfinity: 2
      m_RotationOrder: 4
    attribute: m_IsActive
    path: Flip/HitBox
    classID: 1
    script: {fileID: 0}
  m_PPtrCurves:
  - curve:
    - time: 0
      value: {fileID: 21300000, guid: 12a1997ce51637d44bbe78c0a0303ce9, type: 3}
    - time: 0.033333335
      value: {fileID: 21300000, guid: 22ac6687c5b002149bd0f722d2947642, type: 3}
    - time: 0.06666667
      value: {fileID: 21300000, guid: 6bb2ac70cb43f3a47964665daad19f8e, type: 3}
    - time: 0.1
      value: {fileID: 21300000, guid: fca6ca1e9e18cc74399295a4b9cec1b3, type: 3}
    - time: 0.13333334
      value: {fileID: 21300000, guid: 952a8d06711298f498f000e3a6bf4f27, type: 3}
    - time: 0.16666667
      value: {fileID: 21300000, guid: 6ec3dfab5c6794d4583ae36e8745043b, type: 3}
    - time: 0.2
      value: {fileID: 21300000, guid: 4e1af13ab8e29db4d87a7659f38ff5d1, type: 3}
    - time: 0.23333333
      value: {fileID: 21300000, guid: 84827898cfabeec4194ae662bc1b5180, type: 3}
    - time: 0.26666668
      value: {fileID: 21300000, guid: 45070caf3b222c7438bea2b1e79f905c, type: 3}
    attribute: m_Sprite
    path: Flip/Visuals
    classID: 212
    script: {fileID: 0}
  m_SampleRate: 60
  m_WrapMode: 0
  m_Bounds:
    m_Center: {x: 0, y: 0, z: 0}
    m_Extent: {x: 0, y: 0, z: 0}
  m_ClipBindingConstant:
    genericBindings:
    - serializedVersion: 2
      path: 2803176602
      attribute: 2086281974
      script: {fileID: 0}
      typeID: 1
      customType: 0
      isPPtrCurve: 0
    - serializedVersion: 2
      path: 3346964865
      attribute: 0
      script: {fileID: 0}
      typeID: 212
      customType: 23
      isPPtrCurve: 1
    pptrCurveMapping:
    - {fileID: 21300000, guid: 12a1997ce51637d44bbe78c0a0303ce9, type: 3}
    - {fileID: 21300000, guid: 22ac6687c5b002149bd0f722d2947642, type: 3}
    - {fileID: 21300000, guid: 6bb2ac70cb43f3a47964665daad19f8e, type: 3}
    - {fileID: 21300000, guid: fca6ca1e9e18cc74399295a4b9cec1b3, type: 3}
    - {fileID: 21300000, guid: 952a8d06711298f498f000e3a6bf4f27, type: 3}
    - {fileID: 21300000, guid: 6ec3dfab5c6794d4583ae36e8745043b, type: 3}
    - {fileID: 21300000, guid: 4e1af13ab8e29db4d87a7659f38ff5d1, type: 3}
    - {fileID: 21300000, guid: 84827898cfabeec4194ae662bc1b5180, type: 3}
    - {fileID: 21300000, guid: 45070caf3b222c7438bea2b1e79f905c, type: 3}
  m_AnimationClipSettings:
    serializedVersion: 2
    m_AdditiveReferencePoseClip: {fileID: 0}
    m_AdditiveReferencePoseTime: 0
    m_StartTime: 0
    m_StopTime: 0.28333336
    m_OrientationOffsetY: 0
    m_Level: 0
    m_CycleOffset: 0
    m_HasAdditiveReferencePose: 0
    m_LoopTime: 0
    m_LoopBlend: 0
    m_LoopBlendOrientation: 0
    m_LoopBlendPositionY: 0
    m_LoopBlendPositionXZ: 0
    m_KeepOriginalOrientation: 0
    m_KeepOriginalPositionY: 1
    m_KeepOriginalPositionXZ: 0
    m_HeightFromFeet: 0
    m_Mirror: 0
  m_EditorCurves:
  - curve:
      serializedVersion: 2
      m_Curve:
      - serializedVersion: 3
        time: 0
        value: 1
        inSlope: 0
        outSlope: 0
        tangentMode: 103
        weightedMode: 0
        inWeight: 0
        outWeight: 0
      - serializedVersion: 3
        time: 0.06666667
        value: 1
        inSlope: 0
        outSlope: 0
        tangentMode: 103
        weightedMode: 0
        inWeight: 0
        outWeight: 0
      - serializedVersion: 3
        time: 0.2
        value: 0
        inSlope: 0
        outSlope: 0
        tangentMode: 103
        weightedMode: 0
        inWeight: 0
        outWeight: 0
      m_PreInfinity: 2
      m_PostInfinity: 2
      m_RotationOrder: 4
    attribute: m_IsActive
    path: Flip/HitBox
    classID: 1
    script: {fileID: 0}
  m_EulerEditorCurves: []
  m_HasGenericRootTransform: 0
  m_HasMotionFloatCurves: 0
  m_Events: []
